{
  "type": "service_account",
  "project_id": "observability-306006",
  "private_key_id": "93d312b644c9f43139d5b87091ee451ae9b128e1",
  "private_key": "-----BEGIN PRIVATE KEY-----\nMIIEvAIBADANBgkqhkiG9w0BAQEFAASCBKYwggSiAgEAAoIBAQCqj5pBCZjysehX\nNfsb7KIgxoAbEJMuYqMo0HNLd89vNR7t6585x8ukHXr3Ho6UY6q3+HSRT9mocHHI\naLwjEEOJn5yQBYsu4ShEp2NV3adlE7kC/2VeRsuHMkd7libF5fGTAYDtvXXGLinr\njWPs4Mjaxw8akq3ErWyC6EhymIzyPOELrdf09B/zZktB9mY146146nU7MVAEyWAy\nQaFVZ3J7SEJN/ALHV0MvA6aAm7INxvJPPn5xFXfOCll2KGpKxlMNdqV6ApIVQxsj\n0/0ANWMQPL4K0p4NFk+7AOHgGHGD/sGvbaLKUKySKlbLjxhiNn5ENGgCNw5CAR9Q\nrSKGsmTnAgMBAAECggEAEWjWDHRv1bn+JsS+THPjeqf4VIrlExODZvucASSKGmZY\nMV3fI1U2/pn5vrayRAhGWT/1mg2GAJD1tEioh4W19xrBLtw6AD+ATj2twIp+9yzD\nskAidzSPus2RiVZiv8mAVoqNP/caSe/VXJNSk0/AgMBX1NULAqvXCyetmXDj1ifg\n2nHVsAxcJeC17xcn5BTnMGkKDNXJo/lCWODfO6kEgOtWaXIEdJeOt+L3lCc2FZ67\nh63YxsLbVoS3Un6FkeGqJgC6D9eUB4Xu5FpEmVlalQ1liMYbBXkvapW4w+/F3Tyl\nuiv0yUGNRryvClN5IxiQBS2fGqTWsVCKYj3Y3I9sFQKBgQDjksoIjW9syNjoNzTS\nmMdLKFTMoFe8oAI/3jIRBk9ZCZJGQ3lKIBuydQenacqeOqCRBZ7gy+zje5N+xN63\nVkKRo2lvJGdoOXBe2znZaNl1zba37QcmxYHHjsnYfVzY1lzK6/snJObOyhsRGk5m\nr41JkUlOIGxmZ0T6mgXD2cPSPQKBgQC/3bPCKvS5gn/sZZWCumAXLk5YkfpL74Gs\nzu8Wl+kKng0vzt8HnfO0G7dS/TkLhuMPKnVKxQgMCDhxmRa47cU2oCZGomMpbxB3\nbUbZOvEBi8Vk2DduMA5YnPz9CbLcDOIzHthzwS8QnFbEYZ1TUvY8nIGozmkdS8DX\nyDrCN2958wKBgFbV2Q+AYGcDEHkzL424TDtqbUkTWccYyyLxtur2HGreExmKf4qA\nS/FBZKVF4dGUj1Ym7ePbDE4VBkfV+SG94XLPBtko6+hCGpWnUyCZOHkSAMmXwSXT\nMV0jJ/PaigYXbZrkhpX+J6/6QG+7OPVHwUK0FGOiTZqZhyGUieScgHMFAoGAan9L\n3PXs+t+F1BiawYJj/dn1INJ+RRH/P4VpTngpoXwTQ7snLtoswIc13bmypURM2kkt\n67+r9MnHUr6vzxwjgGuqc0CFnCUK1c9xKPi/d6U2fwBI3D+OZv9UqbttbRk1oTx4\n1t+fGTA+NSkdo3eEOCaDDcjsrZczxlJc0xrkJKMCgYBKaOWTj0kZg/BVIK5NwaC0\nbLKb8m91IXBa+0W7hELdhDsPkNnpEcnN2Lte5Drepyib4T2G7BPXoegsNmcoHWFX\nHK+YQGm/gz61PL8usE5LRzahPFhzhT9W6bNBRkB0bpyRiH/DPpG1kjq9RlgS2lGu\nQv8VBmubGgBlrFgkzcO9Jw==\n-----END PRIVATE KEY-----\n",
  "client_email": "terraform@observability-306006.iam.gserviceaccount.com",
  "client_id": "118291602506249996002",
  "auth_uri": "https://accounts.google.com/o/oauth2/auth",
  "token_uri": "https://oauth2.googleapis.com/token",
  "auth_provider_x509_cert_url": "https://www.googleapis.com/oauth2/v1/certs",
  "client_x509_cert_url": "https://www.googleapis.com/robot/v1/metadata/x509/terraform%40observability-306006.iam.gserviceaccount.com"
}
